758574 180457 509
786657 283577 509
929509 55643 525
392528 293850 441
448961 170528 449
88150 922336 525
442248 601355 470
363909 786444 509
826250 685376 504
246375 550294 470
959508 757659 525
704540 36224 509
383867 727219 509
273484 262477 407
188658 930793 525
177059 838768 525
927100 582389 525
359265 331696 441
65520 295167 443
543576 567035 452
309681 320340 384
788843 155493 509
721198 634715 504
99727 871979 525
396618 658136 509
635597 914449 525
469659 173777 449
69292 883792 525
825519 667521 504
179808 781423 509
179017 349659 443
482617 780000 509
991117 398006 525
180887 996963 525
992266 895587 507
918247 32403 525
153686 333742 443
61531 412798 449
215619 755549 509
728070 94378 509
380271 883477 525
402756 952015 525
159335 317666 443
35556 852196 525
562424 226409 470
349171 804776 509
7259 298736 443
227079 251759 443
886607 327010 525
389795 850697 525
704067 494063 509
589268 174739 470
55907 48942 340
42728 710239 509
537417 93477 470
476303 482016 413
763198 365572 509
679674 173934 509
191901 648082 509
613682 45916 470
698705 874240 525
420918 932371 525
89579 106178 341
636661 553961 509
620155 534052 452
871119 510827 525
570447 225774 470
456206 400814 449
842720 263851 525
216882 551076 470
538161 830953 509
233209 308993 407
409676 745658 509
947617 442423 525
931496 320333 525
666028 271813 509
132940 511098 449
609584 607073 403
899393 779302 525
947758 106143 525
601177 409559 470
825080 782660 468
248792 241334 350
499966 3678 449
497216 163467 449
362556 617013 470
599868 92374 470
393620 379052 436
402607 620510 470
988929 479058 525
238156 681090 509
668571 114272 509
381581 311739 441
358301 185918 443
211912 973086 525
216686 632988 509
13666 360960 443
874599 263236 525
284117 530060 470
580477 244389 470
92866 731967 509
669906 739755 504
796849 706654 468
856727 657262 525
644756 580376 509
639002 389276 509
475961 298407 449
846198 977559 507
214104 179760 373
631371 446136 509
784599 463088 509
236600 300433 407
330760 619625 470
329113 483856 449
634520 326414 509
903139 230155 525
273566 713173 509
862591 833535 525
216867 129766 386
513645 934761 525
818249 373507 509
635631 725092 504
717412 952166 525
289499 761246 509
639904 901456 525
932656 561694 525
991958 88663 525
425816 782504 509
675704 39088 509
149985 9107 375
888766 619489 525
343827 495818 449
34871 305389 443
480411 247512 449
222926 938590 525
98109 504470 449
435527 260617 449
926678 201884 525
433243 360678 449
361580 592796 470
263262 929363 525
435526 659842 509
960547 872724 507
284915 196825 443
984023 514606 525
338511 751056 509
709063 444386 509
197529 665824 509
595445 660284 509
386243 222242 443
578327 516761 452
445659 423975 400
109889 818088 509
210678 309302 443
135596 250934 443
782319 262361 509
978248 147913 525
553597 147372 470
613523 377771 470
666567 402276 509
692089 38992 509
792088 762926 468
945283 418306 525
380001 434133 449
610675 318063 470
348840 526808 470
498813 951287 525
630725 204743 509
738711 823080 468
826203 177414 509
344330 752216 509
778745 605268 509
426002 594109 470
939551 904867 507
513670 6103 470
351213 181325 443
696970 633890 442
461130 700441 509
868156 992237 507
27425 281168 443
668287 128172 509
36610 602524 470
374429 391663 436
992834 204667 525
886284 334090 525
924915 392694 525
457805 81857 449
328896 556909 470
162250 504515 449
548943 203277 470
625128 987612 525
701179 179475 509
125879 675244 509
513079 463855 470
884159 306831 525
590883 864174 525
261712 600870 470
949387 325019 525
706264 992240 525
57165 118694 354
619399 91567 470
