65551 968393 525
599228 107851 470
408732 526965 470
404530 541204 470
406258 447887 449
145379 368090 443
818389 207761 509
313955 273056 389
729514 417109 509
794850 280950 509
561682 520543 452
989652 622892 525
446163 510743 444
257883 164165 443
299782 400740 441
383815 993920 525
686455 726552 504
273491 447569 449
644001 308175 509
384901 327108 441
690250 912672 525
634357 675808 442
895758 366149 525
199569 633200 509
279300 687608 509
916271 417152 525
520466 240121 470
757135 179077 509
97489 987926 525
15694 79084 351
640177 302557 509
572397 189576 470
714900 356714 509
126142 300112 443
830133 780076 468
928406 226363 525
299892 253053 407
436088 461057 400
472515 889823 525
165664 311918 443
522468 624260 452
859147 801960 525
201081 28479 383
114724 46912 354
994604 305937 525
722998 504741 509
904234 954331 507
246580 343128 407
337946 736225 509
258330 252842 363
590843 149935 470
153332 502618 449
425926 999643 525
902550 773644 525
80093 261683 443
708765 743413 424
324047 202136 443
408378 206891 443
697029 38566 509
390948 723728 509
774799 743639 468
886175 658889 525
654615 506027 509
907025 976520 507
168153 643951 509
139040 886846 525
984111 411726 525
578817 785394 509
311160 128934 443
529075 720583 509
740613 343398 509
859112 593611 525
824637 943050 525
536003 601801 452
362041 813478 509
476052 384022 449
86686 964541 525
222848 151475 386
862133 360483 525
425776 518845 470
776823 225459 509
151341 930596 525
230790 798216 509
74805 698089 509
281783 525769 470
489900 449811 444
838043 295792 525
446099 49893 449
125128 151401 375
486019 259733 449
472333 668595 509
394636 662945 509
797655 601145 509
61979 832467 509
138692 60429 354
873202 171442 525
712474 886106 525
168064 490904 449
350050 897359 525
562859 726492 509
234127 419687 449
986275 278905 525
256584 429691 449
826846 381730 509
624515 815551 509
490570 468572 413
552736 815053 509
192512 890727 525
611441 122223 470
325583 986326 525
364466 322455 441
25197 821322 509
748662 719957 424
873672 59956 525
439215 332312 449
524359 730724 509
648502 247908 509
899347 953593 507
798890 173285 509
722651 302395 509
393284 948489 525
573925 743751 509
741359 558611 509
778661 137391 509
333230 741984 509
801908 272309 509
160962 889480 525
713267 717993 380
847911 295736 525
602938 544740 452
476087 250905 449
452265 502214 444
627117 489004 509
52219 870061 525
290303 323197 384
171702 305515 443
276261 937942 525
806559 258013 509
954048 231932 525
500297 257197 449
674298 595861 509
745138 879834 525
491180 735101 509
799 372018 443
367089 872461 525
110425 987288 525
554071 743130 509
873466 150403 525
765712 432847 509
411936 973468 525
954438 185959 525
700 417606 449
428625 293324 449
986946 714082 525
6563 959997 525
78668 416082 449
752873 576779 509
418042 124328 449
289156 238467 407
244340 809037 509
667569 400489 509
812421 713995 468
510776 489312 426
514930 612847 452
942655 562183 525
994057 304699 525
985178 50973 525
18981 442113 449
345559 125636 443
666230 663062 442
700483 448437 509
289983 407238 441
690251 336013 509
571247 70512 470
74592 488314 449
201753 762623 509
636314 858832 525
490799 436667 444
152757 436489 449
12690 173645 383
128540 656424 509
528038 168123 470
199133 228905 386
236772 528407 470
992759 676493 525
281844 361794 441
500821 781904 509
969572 912993 507
560676 596739 434
156774 171985 370
842630 276810 525
432601 804590 509
866946 918510 476
971725 679749 525
611153 993062 525
488999 737582 509
622381 283652 470
52306 358675 443
925574 599497 525
636211 20669 509
